[
    {
        "categoryId": "s-447",
        "name": "冰球",
        "subCategories": [
            {
                "categoryId": "c-3377",
                "name": "俄羅斯",
                "subCategories": [
                    {
                        "categoryId": "t-7177",
                        "name": "大陸冰球聯盟 季後賽",
                        "categoryOrder": 0
                    }
                ],
                "categoryOrder": 0
            },
            {
                "categoryId": "c-3198",
                "name": "美國",
                "subCategories": [
                    {
                        "categoryId": "t-5716",
                        "name": "國家冰球聯盟",
                        "categoryOrder": 0
                    },
                    {
                        "categoryId": "t-6057",
                        "name": "國家冰球聯盟季後賽",
                        "categoryOrder": 5
                    }
                ],
                "categoryOrder": 0
            },
            {
                "categoryId": "c-3537",
                "name": "國際賽(國家)",
                "subCategories": [
                    {
                        "categoryId": "t-9220",
                        "name": "世界冰球錦標賽，A組",
                        "categoryOrder": 0
                    },
                    {
                        "categoryId": "t-9221",
                        "name": "世界冰球錦標賽，B組",
                        "categoryOrder": 0
                    },
                    {
                        "categoryId": "t-9320",
                        "name": "世界冰球錦標賽，淘汰賽",
                        "categoryOrder": 0
                    }
                ],
                "categoryOrder": 0
            }
        ],
        "categoryOrder": 5
    },
    {
        "categoryId": "s-441",
        "name": "足球",
        "subCategories": [
            {
                "categoryId": "c-2913",
                "name": "法國",
                "subCategories": [
                    {
                        "categoryId": "t-4042",
                        "name": "法國足總盃",
                        "categoryOrder": 0
                    },
                    {
                        "categoryId": "t-4040",
                        "name": "法國乙級聯賽",
                        "categoryOrder": 0
                    },
                    {
                        "categoryId": "t-4041",
                        "name": "法國甲級聯賽",
                        "categoryOrder": 0
                    },
                    {
                        "categoryId": "t-4039",
                        "name": "法國聯賽盃",
                        "categoryOrder": 0
                    },
                    {
                        "categoryId": "t-10520",
                        "name": "法國甲級聯賽，升降級附加賽",
                        "categoryOrder": 0
                    },
                    {
                        "categoryId": "t-10521",
                        "name": "法國乙級聯賽，升降級附加賽",
                        "categoryOrder": 0
                    }
                ],
                "categoryOrder": 0
            },
            {
                "categoryId": "c-2918",
                "name": "國際賽(俱樂部)",
                "subCategories": [
                    {
                        "categoryId": "t-4277",
                        "name": "歐洲冠軍聯賽",
                        "categoryOrder": 0
                    },
                    {
                        "categoryId": "t-4009",
                        "name": "南美自由者盃,5組",
                        "categoryOrder": 0
                    },
                    {
                        "categoryId": "t-4005",
                        "name": "南美自由者盃,1組",
                        "categoryOrder": 0
                    },
                    {
                        "categoryId": "t-4007",
                        "name": "南美自由者盃,3組",
                        "categoryOrder": 0
                    },
                    {
                        "categoryId": "t-4012",
                        "name": "南美自由者盃,8組",
                        "categoryOrder": 0
                    },
                    {
                        "categoryId": "t-4010",
                        "name": "南美自由者盃,6組",
                        "categoryOrder": 0
                    },
                    {
                        "categoryId": "t-4592",
                        "name": "中北美冠軍聯賽",
                        "categoryOrder": 0
                    },
                    {
                        "categoryId": "t-4354",
                        "name": "歐足聯歐洲聯賽",
                        "categoryOrder": 0
                    },
                    {
                        "categoryId": "t-4006",
                        "name": "南美自由者盃,2組",
                        "categoryOrder": 0
                    },
                    {
                        "categoryId": "t-4008",
                        "name": "南美自由者盃,4組",
                        "categoryOrder": 0
                    },
                    {
                        "categoryId": "t-4248",
                        "name": "亞洲足聯盃A 組",
                        "categoryOrder": 0
                    },
                    {
                        "categoryId": "t-4235",
                        "name": "亞洲冠軍聯賽,A組",
                        "categoryOrder": 0
                    },
                    {
                        "categoryId": "t-4236",
                        "name": "亞洲冠軍聯賽,B組",
                        "categoryOrder": 0
                    },
                    {
                        "categoryId": "t-4249",
                        "name": "亞洲足聯盃 B 組",
                        "categoryOrder": 0
                    },
                    {
                        "categoryId": "t-4239",
                        "name": "亞洲冠軍聯賽,E組",
                        "categoryOrder": 0
                    },
                    {
                        "categoryId": "t-4512",
                        "name": "亞洲足聯盃 G 組",
                        "categoryOrder": 0
                    },
                    {
                        "categoryId": "t-4240",
                        "name": "亞洲冠軍聯賽,F組",
                        "categoryOrder": 0
                    },
                    {
                        "categoryId": "t-4253",
                        "name": "亞洲足聯盃 F 組",
                        "categoryOrder": 0
                    },
                    {
                        "categoryId": "t-4238",
                        "name": "亞洲冠軍聯賽,D組",
                        "categoryOrder": 0
                    },
                    {
                        "categoryId": "t-4237",
                        "name": "亞洲冠軍聯賽,C組",
                        "categoryOrder": 0
                    },
                    {
                        "categoryId": "t-4250",
                        "name": "亞洲足聯盃 C 組",
                        "categoryOrder": 0
                    },
                    {
                        "categoryId": "t-4011",
                        "name": "南美自由者盃,7組",
                        "categoryOrder": 0
                    },
                    {
                        "categoryId": "t-4254",
                        "name": "亞洲足聯盃 H 組",
                        "categoryOrder": 0
                    },
                    {
                        "categoryId": "t-4242",
                        "name": "亞洲冠軍聯賽,H組",
                        "categoryOrder": 0
                    },
                    {
                        "categoryId": "t-4241",
                        "name": "亞洲冠軍聯賽,G組",
                        "categoryOrder": 0
                    },
                    {
                        "categoryId": "t-4003",
                        "name": "南美球會盃",
                        "categoryOrder": 0
                    },
                    {
                        "categoryId": "t-4252",
                        "name": "亞洲足聯盃 E 組",
                        "categoryOrder": 0
                    },
                    {
                        "categoryId": "t-8962",
                        "name": "亞洲足聯盃 I 組",
                        "categoryOrder": 0
                    },
                    {
                        "categoryId": "t-4251",
                        "name": "亞洲足聯盃 D 組",
                        "categoryOrder": 0
                    }
                ],
                "categoryOrder": 0
            },
            {
                "categoryId": "c-3777",
                "name": "越南",
                "subCategories": [
                    {
                        "categoryId": "t-11600",
                        "name": "越南甲級聯賽",
                        "categoryOrder": 0
                    }
                ],
                "categoryOrder": 0
            },
            {
                "categoryId": "c-3717",
                "name": "印度",
                "subCategories": [
                    {
                        "categoryId": "t-11660",
                        "name": "印度超級聯賽季後賽",
                        "categoryOrder": 0
                    }
                ],
                "categoryOrder": 0
            },
            {
                "categoryId": "c-2965",
                "name": "哥倫比亞",
                "subCategories": [
                    {
                        "categoryId": "t-5836",
                        "name": "哥倫比亞足球甲級聯賽",
                        "categoryOrder": 0
                    }
                ],
                "categoryOrder": 0
            },
            {
                "categoryId": "c-2905",
                "name": "澳洲",
                "subCategories": [
                    {
                        "categoryId": "t-4043",
                        "name": "澳洲A級聯賽",
                        "categoryOrder": 0
                    },
                    {
                        "categoryId": "t-4732",
                        "name": "澳洲A級聯賽",
                        "categoryOrder": 0
                    }
                ],
                "categoryOrder": 0
            },
            {
                "categoryId": "c-3797",
                "name": "新加坡",
                "subCategories": [
                    {
                        "categoryId": "t-11640",
                        "name": "新加坡超級聯賽",
                        "categoryOrder": 0
                    }
                ],
                "categoryOrder": 0
            },
            {
                "categoryId": "c-2910",
                "name": "中國",
                "subCategories": [
                    {
                        "categoryId": "t-3997",
                        "name": "中國足球超級聯賽",
                        "categoryOrder": 0
                    },
                    {
                        "categoryId": "t-3996",
                        "name": "中國甲級聯賽",
                        "categoryOrder": 0
                    }
                ],
                "categoryOrder": 0
            },
            {
                "categoryId": "c-3417",
                "name": "泰國",
                "subCategories": [
                    {
                        "categoryId": "t-7157",
                        "name": "泰國超級聯賽",
                        "categoryOrder": 0
                    }
                ],
                "categoryOrder": 0
            },
            {
                "categoryId": "c-3737",
                "name": "馬來西亞",
                "subCategories": [
                    {
                        "categoryId": "t-11440",
                        "name": "馬來西亞超級聯賽",
                        "categoryOrder": 0
                    }
                ],
                "categoryOrder": 0
            },
            {
                "categoryId": "c-3757",
                "name": "捷克",
                "subCategories": [
                    {
                        "categoryId": "t-11500",
                        "name": "捷克甲級聯賽",
                        "categoryOrder": 0
                    }
                ],
                "categoryOrder": 0
            },
            {
                "categoryId": "c-2914",
                "name": "德國",
                "subCategories": [
                    {
                        "categoryId": "t-4019",
                        "name": "德國乙級聯賽",
                        "categoryOrder": 0
                    },
                    {
                        "categoryId": "t-4016",
                        "name": "德國甲級聯賽",
                        "categoryOrder": 7
                    },
                    {
                        "categoryId": "t-4020",
                        "name": "德國足總盃",
                        "categoryOrder": 0
                    },
                    {
                        "categoryId": "t-4852",
                        "name": "德甲升降級附加賽",
                        "categoryOrder": 0
                    }
                ],
                "categoryOrder": 0
            },
            {
                "categoryId": "c-2964",
                "name": "土耳其",
                "subCategories": [
                    {
                        "categoryId": "t-4188",
                        "name": "土耳其超級聯賽",
                        "categoryOrder": 0
                    }
                ],
                "categoryOrder": 0
            },
            {
                "categoryId": "c-2911",
                "name": "丹麥",
                "subCategories": [
                    {
                        "categoryId": "t-4189",
                        "name": "丹麥超級聯賽",
                        "categoryOrder": 0
                    },
                    {
                        "categoryId": "t-10461",
                        "name": "丹麥超級聯賽，爭冠組附加賽",
                        "categoryOrder": 0
                    },
                    {
                        "categoryId": "t-10462",
                        "name": "丹麥超級聯賽，歐洲盃賽資格附加賽",
                        "categoryOrder": 0
                    },
                    {
                        "categoryId": "t-10463",
                        "name": "丹麥超級聯賽，升降級附加賽",
                        "categoryOrder": 0
                    }
                ],
                "categoryOrder": 0
            },
            {
                "categoryId": "c-2927",
                "name": "蘇格蘭",
                "subCategories": [
                    {
                        "categoryId": "t-4076",
                        "name": "蘇格蘭冠軍聯賽",
                        "categoryOrder": 0
                    },
                    {
                        "categoryId": "t-4191",
                        "name": "蘇格蘭超級聯賽",
                        "categoryOrder": 0
                    },
                    {
                        "categoryId": "t-9340",
                        "name": "蘇格蘭超級聯賽，升降級附加賽",
                        "categoryOrder": 0
                    },
                    {
                        "categoryId": "t-10440",
                        "name": "蘇格蘭冠軍聯賽，升降級附加賽",
                        "categoryOrder": 0
                    }
                ],
                "categoryOrder": 0
            },
            {
                "categoryId": "c-2916",
                "name": "荷蘭",
                "subCategories": [
                    {
                        "categoryId": "t-3991",
                        "name": "荷蘭甲級聯賽",
                        "categoryOrder": 0
                    },
                    {
                        "categoryId": "t-8677",
                        "name": "荷蘭乙級聯賽",
                        "categoryOrder": 0
                    },
                    {
                        "categoryId": "t-10460",
                        "name": "荷蘭甲級聯賽，升降級附加賽",
                        "categoryOrder": 0
                    },
                    {
                        "categoryId": "t-4813",
                        "name": "荷蘭足球甲級聯賽",
                        "categoryOrder": 0
                    }
                ],
                "categoryOrder": 0
            },
            {
                "categoryId": "c-2920",
                "name": "義大利",
                "subCategories": [
                    {
                        "categoryId": "t-4058",
                        "name": "義大利甲級聯賽",
                        "categoryOrder": 0
                    },
                    {
                        "categoryId": "t-4057",
                        "name": "義大利乙級聯賽",
                        "categoryOrder": 0
                    },
                    {
                        "categoryId": "t-4060",
                        "name": "義大利足總盃",
                        "categoryOrder": 0
                    },
                    {
                        "categoryId": "t-4994",
                        "name": "義乙升級附加賽",
                        "categoryOrder": 0
                    }
                ],
                "categoryOrder": 0
            },
            {
                "categoryId": "c-2919",
                "name": "愛爾蘭",
                "subCategories": [
                    {
                        "categoryId": "t-4021",
                        "name": "愛爾蘭超級聯賽",
                        "categoryOrder": 0
                    }
                ],
                "categoryOrder": 0
            },
            {
                "categoryId": "c-2929",
                "name": "西班牙",
                "subCategories": [
                    {
                        "categoryId": "t-4054",
                        "name": "西班牙甲級聯賽",
                        "categoryOrder": 6
                    },
                    {
                        "categoryId": "t-4079",
                        "name": "西班牙乙級聯賽",
                        "categoryOrder": 0
                    },
                    {
                        "categoryId": "t-4080",
                        "name": "西班牙國王盃",
                        "categoryOrder": 0
                    }
                ],
                "categoryOrder": 0
            },
            {
                "categoryId": "c-2912",
                "name": "英格蘭",
                "subCategories": [
                    {
                        "categoryId": "t-4075",
                        "name": "英格蘭冠軍聯賽",
                        "categoryOrder": 0
                    },
                    {
                        "categoryId": "t-4077",
                        "name": "英格蘭甲級聯賽",
                        "categoryOrder": 0
                    },
                    {
                        "categoryId": "t-8678",
                        "name": "英格蘭乙級聯賽",
                        "categoryOrder": 0
                    },
                    {
                        "categoryId": "t-3989",
                        "name": "英格蘭超級聯賽",
                        "categoryOrder": 6
                    },
                    {
                        "categoryId": "t-3999",
                        "name": "英格蘭足總盃",
                        "categoryOrder": 0
                    },
                    {
                        "categoryId": "t-4812",
                        "name": "英格蘭冠軍聯賽",
                        "categoryOrder": 0
                    },
                    {
                        "categoryId": "t-3988",
                        "name": "英格蘭足球甲級聯賽",
                        "categoryOrder": 0
                    }
                ],
                "categoryOrder": 0
            },
            {
                "categoryId": "c-2925",
                "name": "葡萄牙",
                "subCategories": [
                    {
                        "categoryId": "t-3993",
                        "name": "葡萄牙超級聯賽",
                        "categoryOrder": 0
                    },
                    {
                        "categoryId": "t-3994",
                        "name": "葡萄牙足總盃",
                        "categoryOrder": 0
                    }
                ],
                "categoryOrder": 0
            },
            {
                "categoryId": "c-2924",
                "name": "祕魯",
                "subCategories": [
                    {
                        "categoryId": "t-5012",
                        "name": "秘魯甲級聯賽",
                        "categoryOrder": 0
                    }
                ],
                "categoryOrder": 0
            },
            {
                "categoryId": "c-2904",
                "name": "阿根廷",
                "subCategories": [
                    {
                        "categoryId": "t-4047",
                        "name": "阿根廷甲級聯賽",
                        "categoryOrder": 0
                    },
                    {
                        "categoryId": "t-4452",
                        "name": "阿根廷超級杯",
                        "categoryOrder": 0
                    }
                ],
                "categoryOrder": 0
            },
            {
                "categoryId": "c-2909",
                "name": "智利",
                "subCategories": [
                    {
                        "categoryId": "t-10480",
                        "name": "智利甲級聯賽",
                        "categoryOrder": 0
                    },
                    {
                        "categoryId": "t-4034",
                        "name": "智利超級盃",
                        "categoryOrder": 0
                    }
                ],
                "categoryOrder": 0
            },
            {
                "categoryId": "c-2922",
                "name": "墨西哥",
                "subCategories": [
                    {
                        "categoryId": "t-4049",
                        "name": "墨西哥超級聯賽",
                        "categoryOrder": 0
                    },
                    {
                        "categoryId": "t-4050",
                        "name": "墨西哥超級聯賽",
                        "categoryOrder": 0
                    }
                ],
                "categoryOrder": 0
            },
            {
                "categoryId": "c-2921",
                "name": "日本",
                "subCategories": [
                    {
                        "categoryId": "t-4029",
                        "name": "日本乙級聯賽",
                        "categoryOrder": 0
                    },
                    {
                        "categoryId": "t-4030",
                        "name": "日本甲級聯賽",
                        "categoryOrder": 0
                    },
                    {
                        "categoryId": "t-4246",
                        "name": "日甲聯賽盃B組",
                        "categoryOrder": 0
                    },
                    {
                        "categoryId": "t-4245",
                        "name": "日甲聯賽盃A組",
                        "categoryOrder": 0
                    },
                    {
                        "categoryId": "t-10241",
                        "name": "日甲聯賽盃D組",
                        "categoryOrder": 0
                    },
                    {
                        "categoryId": "t-10240",
                        "name": "日甲聯賽盃C組",
                        "categoryOrder": 0
                    }
                ],
                "categoryOrder": 0
            },
            {
                "categoryId": "c-2928",
                "name": "南韓",
                "subCategories": [
                    {
                        "categoryId": "t-4572",
                        "name": "南韓K1聯賽",
                        "categoryOrder": 0
                    }
                ],
                "categoryOrder": 0
            },
            {
                "categoryId": "c-2926",
                "name": "俄羅斯",
                "subCategories": [
                    {
                        "categoryId": "t-3990",
                        "name": "俄羅斯足球超級聯賽",
                        "categoryOrder": 0
                    }
                ],
                "categoryOrder": 0
            },
            {
                "categoryId": "c-2915",
                "name": "希臘",
                "subCategories": [
                    {
                        "categoryId": "t-4045",
                        "name": "希臘超級聯賽",
                        "categoryOrder": 0
                    }
                ],
                "categoryOrder": 0
            },
            {
                "categoryId": "c-2931",
                "name": "瑞士",
                "subCategories": [
                    {
                        "categoryId": "t-4046",
                        "name": "瑞士超級聯賽",
                        "categoryOrder": 0
                    }
                ],
                "categoryOrder": 0
            },
            {
                "categoryId": "c-2932",
                "name": "美國",
                "subCategories": [
                    {
                        "categoryId": "t-4055",
                        "name": "美國足球大聯盟",
                        "categoryOrder": 20
                    }
                ],
                "categoryOrder": 0
            },
            {
                "categoryId": "c-2907",
                "name": "比利時",
                "subCategories": [
                    {
                        "categoryId": "t-4036",
                        "name": "比利時甲級聯賽",
                        "categoryOrder": 0
                    },
                    {
                        "categoryId": "t-4632",
                        "name": "比利時甲級聯賽",
                        "categoryOrder": 0
                    },
                    {
                        "categoryId": "t-10321",
                        "name": "比利時甲級聯賽，季後賽2B組",
                        "categoryOrder": 0
                    },
                    {
                        "categoryId": "t-10320",
                        "name": "比利時甲級聯賽，季後賽2A組",
                        "categoryOrder": 0
                    },
                    {
                        "categoryId": "t-4814",
                        "name": "比利時甲級聯賽淘汰賽",
                        "categoryOrder": 0
                    }
                ],
                "categoryOrder": 0
            },
            {
                "categoryId": "c-2906",
                "name": "奧地利",
                "subCategories": [
                    {
                        "categoryId": "t-4015",
                        "name": "奧地利甲級聯賽",
                        "categoryOrder": 0
                    }
                ],
                "categoryOrder": 0
            },
            {
                "categoryId": "c-2917",
                "name": "國際賽",
                "subCategories": [
                    {
                        "categoryId": "t-4553",
                        "name": "國際友誼賽",
                        "categoryOrder": 0
                    },
                    {
                        "categoryId": "t-5541",
                        "name": "歐洲足球錦標賽資格賽I組",
                        "categoryOrder": 0
                    },
                    {
                        "categoryId": "t-5535",
                        "name": "歐洲足球錦標賽資格賽C組",
                        "categoryOrder": 0
                    },
                    {
                        "categoryId": "t-5537",
                        "name": "歐洲足球錦標賽資格賽E組",
                        "categoryOrder": 0
                    },
                    {
                        "categoryId": "t-5539",
                        "name": "歐洲足球錦標賽資格賽G組",
                        "categoryOrder": 0
                    },
                    {
                        "categoryId": "t-5533",
                        "name": "歐洲足球錦標賽資格賽A組",
                        "categoryOrder": 0
                    },
                    {
                        "categoryId": "t-5534",
                        "name": "歐洲足球錦標賽資格賽B組",
                        "categoryOrder": 0
                    },
                    {
                        "categoryId": "t-5540",
                        "name": "歐洲足球錦標賽資格賽H組",
                        "categoryOrder": 0
                    },
                    {
                        "categoryId": "t-5536",
                        "name": "歐洲足球錦標賽資格賽D組",
                        "categoryOrder": 0
                    },
                    {
                        "categoryId": "t-5538",
                        "name": "歐洲足球錦標賽資格賽F組",
                        "categoryOrder": 0
                    },
                    {
                        "categoryId": "t-11680",
                        "name": "歐洲足球錦標賽資格賽J組",
                        "categoryOrder": 0
                    }
                ],
                "categoryOrder": 0
            },
            {
                "categoryId": "c-2923",
                "name": "挪威",
                "subCategories": [
                    {
                        "categoryId": "t-4024",
                        "name": "挪威足球超級聯賽",
                        "categoryOrder": 0
                    }
                ],
                "categoryOrder": 0
            },
            {
                "categoryId": "c-2930",
                "name": "瑞典",
                "subCategories": [
                    {
                        "categoryId": "t-4044",
                        "name": "瑞典超級聯賽",
                        "categoryOrder": 0
                    }
                ],
                "categoryOrder": 0
            },
            {
                "categoryId": "c-3817",
                "name": "芬蘭",
                "subCategories": [
                    {
                        "categoryId": "t-11760",
                        "name": "芬蘭超級聯賽",
                        "categoryOrder": 0
                    }
                ],
                "categoryOrder": 0
            },
            {
                "categoryId": "c-2908",
                "name": "巴西",
                "subCategories": [
                    {
                        "categoryId": "t-4017",
                        "name": "巴西甲級聯賽",
                        "categoryOrder": 0
                    }
                ],
                "categoryOrder": 0
            },
            {
                "categoryId": "c-3857",
                "name": "印尼",
                "subCategories": [
                    {
                        "categoryId": "t-11960",
                        "name": "印尼甲級聯賽",
                        "categoryOrder": 0
                    }
                ],
                "categoryOrder": 0
            },
            {
                "categoryId": "c-3277",
                "name": "青年國際賽",
                "subCategories": [
                    {
                        "categoryId": "t-6206",
                        "name": "國際足總U20世界盃小組賽A組",
                        "categoryOrder": 0
                    },
                    {
                        "categoryId": "t-6207",
                        "name": "國際足總U20世界盃小組賽B組",
                        "categoryOrder": 0
                    },
                    {
                        "categoryId": "t-6208",
                        "name": "國際足總U20世界盃小組賽C組",
                        "categoryOrder": 0
                    },
                    {
                        "categoryId": "t-6209",
                        "name": "國際足總U20世界盃小組賽D組",
                        "categoryOrder": 0
                    },
                    {
                        "categoryId": "t-6211",
                        "name": "國際足總U20世界盃小組賽F組",
                        "categoryOrder": 0
                    },
                    {
                        "categoryId": "t-6210",
                        "name": "國際足總U20世界盃小組賽E組",
                        "categoryOrder": 0
                    },
                    {
                        "categoryId": "t-6257",
                        "name": "國際足總U20世界盃淘汰賽",
                        "categoryOrder": 0
                    }
                ],
                "categoryOrder": 0
            }
        ],
        "categoryOrder": 3
    },
    {
        "categoryId": "s-443",
        "name": "棒球                                    ",
        "subCategories": [
            {
                "categoryId": "c-2935",
                "name": "美國",
                "subCategories": [
                    {
                        "categoryId": "t-4093",
                        "name": "美國職棒熱身賽",
                        "categoryOrder": 30
                    },
                    {
                        "categoryId": "t-4092",
                        "name": "美國職棒",
                        "categoryOrder": 3
                    }
                ],
                "categoryOrder": 0
            },
            {
                "categoryId": "c-2969",
                "name": "南韓",
                "subCategories": [
                    {
                        "categoryId": "t-7337",
                        "name": "韓國職棒",
                        "categoryOrder": 0
                    }
                ],
                "categoryOrder": 0
            },
            {
                "categoryId": "c-2968",
                "name": "臺灣",
                "subCategories": [
                    {
                        "categoryId": "t-4197",
                        "name": "中華職棒",
                        "categoryOrder": 4
                    }
                ],
                "categoryOrder": 0
            },
            {
                "categoryId": "c-2934",
                "name": "日本",
                "subCategories": [
                    {
                        "categoryId": "t-4089",
                        "name": "中央聯盟",
                        "categoryOrder": 4
                    },
                    {
                        "categoryId": "t-4091",
                        "name": "太平洋聯盟",
                        "categoryOrder": 4
                    },
                    {
                        "categoryId": "t-4090",
                        "name": "日本職棒交流賽",
                        "categoryOrder": 4
                    }
                ],
                "categoryOrder": 0
            }
        ],
        "categoryOrder": 1
    },
    {
        "categoryId": "s-650",
        "name": "羽球",
        "subCategories": [
            {
                "categoryId": "c-89A",
                "name": "國際賽(國家)",
                "subCategories": [
                    {
                        "categoryId": "t-10260",
                        "name": "全英公開賽 男子單打",
                        "categoryOrder": 0
                    }
                ],
                "categoryOrder": 0
            },
            {
                "categoryId": "c-3597",
                "name": "國際賽",
                "subCategories": [
                    {
                        "categoryId": "t-10261",
                        "name": "全英公開賽 女子單打",
                        "categoryOrder": 0
                    },
                    {
                        "categoryId": "t-11700",
                        "name": "印度公開賽 男子單打",
                        "categoryOrder": 0
                    },
                    {
                        "categoryId": "t-11720",
                        "name": "印度公開賽 女子單打",
                        "categoryOrder": 0
                    },
                    {
                        "categoryId": "t-10600",
                        "name": "大馬公開賽 男子單打",
                        "categoryOrder": 0
                    },
                    {
                        "categoryId": "t-10601",
                        "name": "大馬公開賽 女子單打",
                        "categoryOrder": 0
                    },
                    {
                        "categoryId": "t-11841",
                        "name": "新加坡公開賽 (女子單打組)",
                        "categoryOrder": 0
                    },
                    {
                        "categoryId": "t-11840",
                        "name": "新加坡公開賽 (男子單打組)",
                        "categoryOrder": 0
                    }
                ],
                "categoryOrder": 0
            }
        ],
        "categoryOrder": 6
    },
    {
        "categoryId": "s-445",
        "name": "網球                                    ",
        "subCategories": [
            {
                "categoryId": "c-2944",
                "name": "WTA",
                "subCategories": [
                    {
                        "categoryId": "t-7238",
                        "name": "WTA印地安泉公開賽",
                        "categoryOrder": 0
                    },
                    {
                        "categoryId": "t-7299",
                        "name": "WTA邁阿密公開賽",
                        "categoryOrder": 0
                    },
                    {
                        "categoryId": "t-9061",
                        "name": "WTA查爾斯頓巡迴賽",
                        "categoryOrder": 0
                    },
                    {
                        "categoryId": "t-11740",
                        "name": "WTA蒙特雷公開賽",
                        "categoryOrder": 0
                    },
                    {
                        "categoryId": "t-11820",
                        "name": "WTA盧加諾公開賽",
                        "categoryOrder": 0
                    },
                    {
                        "categoryId": "t-11800",
                        "name": "WTA波哥大公開賽",
                        "categoryOrder": 0
                    },
                    {
                        "categoryId": "t-11920",
                        "name": "WTA伊斯坦堡公開賽",
                        "categoryOrder": 0
                    },
                    {
                        "categoryId": "t-9160",
                        "name": "WTA斯圖加特巡迴賽",
                        "categoryOrder": 0
                    },
                    {
                        "categoryId": "t-11941",
                        "name": "WTA摩洛哥公開賽",
                        "categoryOrder": 0
                    },
                    {
                        "categoryId": "t-11940",
                        "name": "WTA布拉格公開賽",
                        "categoryOrder": 0
                    },
                    {
                        "categoryId": "t-7438",
                        "name": "WTA馬德里公開賽",
                        "categoryOrder": 0
                    },
                    {
                        "categoryId": "t-7460",
                        "name": "WTA羅馬公開賽",
                        "categoryOrder": 0
                    },
                    {
                        "categoryId": "t-11983",
                        "name": "WTA紐倫堡公開賽",
                        "categoryOrder": 0
                    },
                    {
                        "categoryId": "t-11980",
                        "name": "WTA史特拉斯堡公開賽",
                        "categoryOrder": 0
                    },
                    {
                        "categoryId": "t-4913",
                        "name": "法國網球公開賽(女子組)",
                        "categoryOrder": 20
                    }
                ],
                "categoryOrder": 0
            },
            {
                "categoryId": "c-2997",
                "name": "ATP",
                "subCategories": [
                    {
                        "categoryId": "t-7237",
                        "name": "印地安泉大師賽",
                        "categoryOrder": 0
                    },
                    {
                        "categoryId": "t-7298",
                        "name": "邁阿密大師賽",
                        "categoryOrder": 0
                    },
                    {
                        "categoryId": "t-11781",
                        "name": "海珊二世大獎賽",
                        "categoryOrder": 0
                    },
                    {
                        "categoryId": "t-11780",
                        "name": "休士頓紅土錦標賽",
                        "categoryOrder": 0
                    },
                    {
                        "categoryId": "t-7378",
                        "name": "蒙地卡羅大師賽",
                        "categoryOrder": 0
                    },
                    {
                        "categoryId": "t-7397",
                        "name": "巴塞隆納公開賽",
                        "categoryOrder": 0
                    },
                    {
                        "categoryId": "t-11900",
                        "name": "布達佩斯公開賽",
                        "categoryOrder": 0
                    },
                    {
                        "categoryId": "t-11943",
                        "name": "慕尼黑BMW公開賽",
                        "categoryOrder": 0
                    },
                    {
                        "categoryId": "t-11942",
                        "name": "艾斯特里公開賽",
                        "categoryOrder": 0
                    },
                    {
                        "categoryId": "t-7437",
                        "name": "馬德里大師賽",
                        "categoryOrder": 0
                    },
                    {
                        "categoryId": "t-7459",
                        "name": "羅馬大師賽",
                        "categoryOrder": 0
                    },
                    {
                        "categoryId": "t-11981",
                        "name": "里昂公開賽",
                        "categoryOrder": 0
                    },
                    {
                        "categoryId": "t-11982",
                        "name": "日內瓦公開賽",
                        "categoryOrder": 0
                    },
                    {
                        "categoryId": "t-4912",
                        "name": "法國網球公開賽(男子組)",
                        "categoryOrder": 30
                    }
                ],
                "categoryOrder": 0
            },
            {
                "categoryId": "c-3057",
                "name": "男子網球挑戰賽",
                "subCategories": [
                    {
                        "categoryId": "t-7417",
                        "name": "華國三太子國際男子網球賽",
                        "categoryOrder": 0
                    }
                ],
                "categoryOrder": 0
            }
        ],
        "categoryOrder": 4
    },
    {
        "categoryId": "s-442",
        "name": "籃球                                    ",
        "subCategories": [
            {
                "categoryId": "c-2939",
                "name": "國際賽(國家)",
                "subCategories": [
                    {
                        "categoryId": "t-8857",
                        "name": "冠軍聯賽季後賽",
                        "categoryOrder": 0
                    },
                    {
                        "categoryId": "t-8398",
                        "name": "歐洲籃球聯賽",
                        "categoryOrder": 0
                    },
                    {
                        "categoryId": "t-10140",
                        "name": "東南亞職業籃球聯賽",
                        "categoryOrder": 0
                    },
                    {
                        "categoryId": "t-5492",
                        "name": "俄羅斯歐洲聯賽",
                        "categoryOrder": 0
                    },
                    {
                        "categoryId": "t-4552",
                        "name": "歐聯盃季後賽",
                        "categoryOrder": 0
                    },
                    {
                        "categoryId": "t-10340",
                        "name": "東南亞職業籃球聯賽 季後賽",
                        "categoryOrder": 0
                    },
                    {
                        "categoryId": "t-4715",
                        "name": "歐洲籃球聯賽季後賽",
                        "categoryOrder": 0
                    },
                    {
                        "categoryId": "t-4774",
                        "name": "俄羅斯歐洲聯賽季後賽",
                        "categoryOrder": 0
                    }
                ],
                "categoryOrder": 0
            },
            {
                "categoryId": "c-2942",
                "name": "美國",
                "subCategories": [
                    {
                        "categoryId": "t-4102",
                        "name": "美國職籃",
                        "categoryOrder": 30
                    },
                    {
                        "categoryId": "t-4106",
                        "name": "美國大學籃球",
                        "categoryOrder": 0
                    },
                    {
                        "categoryId": "t-4104",
                        "name": "美國職籃季後賽",
                        "categoryOrder": 1
                    },
                    {
                        "categoryId": "t-4107",
                        "name": "美國女子職業籃球",
                        "categoryOrder": 0
                    }
                ],
                "categoryOrder": 0
            },
            {
                "categoryId": "c-2971",
                "name": "臺灣",
                "subCategories": [
                    {
                        "categoryId": "t-4268",
                        "name": "超級籃球聯賽",
                        "categoryOrder": 0
                    }
                ],
                "categoryOrder": 0
            },
            {
                "categoryId": "c-3200",
                "name": "南韓",
                "subCategories": [
                    {
                        "categoryId": "t-5718",
                        "name": "韓國男子籃球職業聯賽",
                        "categoryOrder": 0
                    },
                    {
                        "categoryId": "t-5936",
                        "name": "韓國男子籃球職業聯賽(季後賽)",
                        "categoryOrder": 0
                    }
                ],
                "categoryOrder": 0
            },
            {
                "categoryId": "c-2949",
                "name": "中國",
                "subCategories": [
                    {
                        "categoryId": "t-4169",
                        "name": "中國男子籃球職業聯賽",
                        "categoryOrder": 0
                    },
                    {
                        "categoryId": "t-5876",
                        "name": "中國男子籃球職業聯賽(季後賽)",
                        "categoryOrder": 0
                    }
                ],
                "categoryOrder": 0
            },
            {
                "categoryId": "c-2945",
                "name": "菲律賓",
                "subCategories": [
                    {
                        "categoryId": "t-6637",
                        "name": "菲律賓職業籃球聯賽",
                        "categoryOrder": 0
                    },
                    {
                        "categoryId": "t-5753",
                        "name": "菲律賓職業籃球聯賽",
                        "categoryOrder": 0
                    },
                    {
                        "categoryId": "t-5816",
                        "name": "菲律賓職業籃球聯賽",
                        "categoryOrder": 0
                    }
                ],
                "categoryOrder": 0
            },
            {
                "categoryId": "c-3199",
                "name": "日本",
                "subCategories": [
                    {
                        "categoryId": "t-8257",
                        "name": "日本職籃B League",
                        "categoryOrder": 0
                    },
                    {
                        "categoryId": "t-9280",
                        "name": "日本職籃B League保級賽",
                        "categoryOrder": 0
                    },
                    {
                        "categoryId": "t-9240",
                        "name": "日本職籃B League季後賽",
                        "categoryOrder": 0
                    }
                ],
                "categoryOrder": 0
            },
            {
                "categoryId": "c-3557",
                "name": "澳洲",
                "subCategories": [
                    {
                        "categoryId": "t-8898",
                        "name": "澳洲籃球聯盟季後賽",
                        "categoryOrder": 0
                    }
                ],
                "categoryOrder": 0
            },
            {
                "categoryId": "c-2936",
                "name": "法國",
                "subCategories": [
                    {
                        "categoryId": "t-4110",
                        "name": "法國甲級籃球聯賽",
                        "categoryOrder": 0
                    },
                    {
                        "categoryId": "t-4832",
                        "name": "法國甲級籃球聯賽",
                        "categoryOrder": 0
                    }
                ],
                "categoryOrder": 0
            },
            {
                "categoryId": "c-2937",
                "name": "德國",
                "subCategories": [
                    {
                        "categoryId": "t-4111",
                        "name": "德國甲級聯賽",
                        "categoryOrder": 0
                    },
                    {
                        "categoryId": "t-4833",
                        "name": "德國甲級聯賽",
                        "categoryOrder": 0
                    }
                ],
                "categoryOrder": 0
            },
            {
                "categoryId": "c-3558",
                "name": "土耳其",
                "subCategories": [
                    {
                        "categoryId": "t-8680",
                        "name": "土耳其籃球超級聯賽",
                        "categoryOrder": 0
                    },
                    {
                        "categoryId": "t-9360",
                        "name": "土耳其籃球超級聯賽季後賽",
                        "categoryOrder": 0
                    }
                ],
                "categoryOrder": 0
            },
            {
                "categoryId": "c-2938",
                "name": "希臘",
                "subCategories": [
                    {
                        "categoryId": "t-4114",
                        "name": "希臘甲級聯賽",
                        "categoryOrder": 0
                    },
                    {
                        "categoryId": "t-4200",
                        "name": "希臘甲級聯賽季後賽",
                        "categoryOrder": 0
                    }
                ],
                "categoryOrder": 0
            },
            {
                "categoryId": "c-2941",
                "name": "西班牙",
                "subCategories": [
                    {
                        "categoryId": "t-4101",
                        "name": "西班牙甲級聯賽",
                        "categoryOrder": 0
                    },
                    {
                        "categoryId": "t-4952",
                        "name": "西班牙甲級聯賽季後賽",
                        "categoryOrder": 0
                    }
                ],
                "categoryOrder": 0
            },
            {
                "categoryId": "c-2940",
                "name": "義大利",
                "subCategories": [
                    {
                        "categoryId": "t-4096",
                        "name": "義大利甲級聯賽",
                        "categoryOrder": 0
                    },
                    {
                        "categoryId": "t-4872",
                        "name": "義大利甲級聯賽季後賽",
                        "categoryOrder": 0
                    }
                ],
                "categoryOrder": 0
            }
        ],
        "categoryOrder": 2
    },
    {
        "categoryId": "s-646",
        "name": "摩托車",
        "subCategories": [
            {
                "categoryId": "c-3577",
                "name": "Moto GP ",
                "subCategories": [
                    {
                        "categoryId": "t-9000",
                        "name": "MotoGP卡達大獎賽",
                        "categoryOrder": 0
                    },
                    {
                        "categoryId": "t-9002",
                        "name": "MotoGP阿根廷大獎賽",
                        "categoryOrder": 0
                    },
                    {
                        "categoryId": "t-9003",
                        "name": "MotoGP美國大獎賽",
                        "categoryOrder": 0
                    },
                    {
                        "categoryId": "t-9004",
                        "name": "MotoGP西班牙大獎賽",
                        "categoryOrder": 0
                    },
                    {
                        "categoryId": "t-9007",
                        "name": "MotoGP法國大獎賽",
                        "categoryOrder": 0
                    },
                    {
                        "categoryId": "t-9009",
                        "name": "MotoGP義大利大獎賽",
                        "categoryOrder": 0
                    }
                ],
                "categoryOrder": 0
            }
        ],
        "categoryOrder": 0
    },
    {
        "categoryId": "s-451",
        "name": "一級方程式賽車",
        "subCategories": [
            {
                "categoryId": "c-3017",
                "name": "一級方程式賽車",
                "subCategories": [
                    {
                        "categoryId": "t-4593",
                        "name": "F1澳洲大獎桿位 (排位賽最快車手)",
                        "categoryOrder": 0
                    },
                    {
                        "categoryId": "t-4594",
                        "name": "F1澳洲大獎賽冠軍",
                        "categoryOrder": 0
                    },
                    {
                        "categoryId": "t-9021",
                        "name": "F1澳洲大獎賽第一個退賽車手",
                        "categoryOrder": 0
                    },
                    {
                        "categoryId": "t-9022",
                        "name": "F1澳洲大獎賽一對一配對賽",
                        "categoryOrder": 0
                    },
                    {
                        "categoryId": "t-9023",
                        "name": "F1澳洲大獎賽小組配對賽",
                        "categoryOrder": 0
                    },
                    {
                        "categoryId": "t-4653",
                        "name": "F1巴林大獎桿位 (排位賽最快車手)",
                        "categoryOrder": 0
                    },
                    {
                        "categoryId": "t-4652",
                        "name": "F1巴林大獎賽冠軍",
                        "categoryOrder": 0
                    },
                    {
                        "categoryId": "t-9100",
                        "name": "F1巴林大獎賽第一個退賽車手",
                        "categoryOrder": 0
                    },
                    {
                        "categoryId": "t-9102",
                        "name": "F1巴林大獎賽小組配對賽",
                        "categoryOrder": 0
                    },
                    {
                        "categoryId": "t-9101",
                        "name": "F1巴林大獎賽一對一配對賽",
                        "categoryOrder": 0
                    },
                    {
                        "categoryId": "t-4712",
                        "name": "F1 中國大獎桿位 (排位賽最快車手)",
                        "categoryOrder": 0
                    },
                    {
                        "categoryId": "t-4713",
                        "name": "F1中國大獎賽冠軍",
                        "categoryOrder": 0
                    },
                    {
                        "categoryId": "t-9065",
                        "name": "F1中國大獎賽第一個退賽車手",
                        "categoryOrder": 0
                    },
                    {
                        "categoryId": "t-9063",
                        "name": "F1中國大獎賽一對一配對賽",
                        "categoryOrder": 0
                    },
                    {
                        "categoryId": "t-9064",
                        "name": "F1中國大獎賽小組配對賽",
                        "categoryOrder": 0
                    },
                    {
                        "categoryId": "t-9508",
                        "name": "F1亞塞拜然大獎桿位 (排位賽最快車手)",
                        "categoryOrder": 0
                    },
                    {
                        "categoryId": "t-9507",
                        "name": "F1亞塞拜然大獎賽第一個退賽車手",
                        "categoryOrder": 0
                    },
                    {
                        "categoryId": "t-9504",
                        "name": "F1亞塞拜然大獎賽冠軍",
                        "categoryOrder": 0
                    },
                    {
                        "categoryId": "t-9505",
                        "name": "F1亞塞拜然大獎賽一對一配對賽",
                        "categoryOrder": 0
                    },
                    {
                        "categoryId": "t-9506",
                        "name": "F1亞塞拜然大獎賽小組配對賽",
                        "categoryOrder": 0
                    },
                    {
                        "categoryId": "t-4773",
                        "name": "F1西班牙大獎桿位 (排位賽最快車手)",
                        "categoryOrder": 0
                    },
                    {
                        "categoryId": "t-4772",
                        "name": "F1西班牙大獎賽冠軍",
                        "categoryOrder": 0
                    },
                    {
                        "categoryId": "t-9261",
                        "name": "F1西班牙大獎賽小組配對賽",
                        "categoryOrder": 0
                    },
                    {
                        "categoryId": "t-9262",
                        "name": "F1西班牙大獎賽一對一配對賽",
                        "categoryOrder": 0
                    },
                    {
                        "categoryId": "t-9260",
                        "name": "F1西班牙大獎賽第一個退賽車手",
                        "categoryOrder": 0
                    },
                    {
                        "categoryId": "t-4892",
                        "name": "F1摩納哥大獎桿位 (排位賽最快車手)",
                        "categoryOrder": 0
                    },
                    {
                        "categoryId": "t-4893",
                        "name": "F1摩納哥大獎賽冠軍",
                        "categoryOrder": 0
                    },
                    {
                        "categoryId": "t-9380",
                        "name": "F1摩納哥大獎賽第一個退賽車手",
                        "categoryOrder": 0
                    },
                    {
                        "categoryId": "t-9381",
                        "name": "F1摩納哥大獎賽小組配對賽",
                        "categoryOrder": 0
                    },
                    {
                        "categoryId": "t-9382",
                        "name": "F1摩納哥大獎賽一對一配對賽",
                        "categoryOrder": 0
                    }
                ],
                "categoryOrder": 0
            }
        ],
        "categoryOrder": 12
    },
    {
        "categoryId": "s-446",
        "name": "高爾夫球                              ",
        "subCategories": [
            {
                "categoryId": "c-2975",
                "name": "男子",
                "subCategories": [
                    {
                        "categoryId": "t-7461",
                        "name": "球員錦標賽",
                        "categoryOrder": 0
                    },
                    {
                        "categoryId": "t-7357",
                        "name": "美國名人賽",
                        "categoryOrder": 0
                    },
                    {
                        "categoryId": "t-7917",
                        "name": "PGA錦標賽",
                        "categoryOrder": 0
                    }
                ],
                "categoryOrder": 0
            },
            {
                "categoryId": "c-3257",
                "name": "女子",
                "subCategories": [
                    {
                        "categoryId": "t-7297",
                        "name": "KIA菁英賽",
                        "categoryOrder": 0
                    },
                    {
                        "categoryId": "t-7317",
                        "name": "LPGA全日空錦標賽",
                        "categoryOrder": 0
                    },
                    {
                        "categoryId": "t-9580",
                        "name": "美國女子公開賽",
                        "categoryOrder": 0
                    }
                ],
                "categoryOrder": 0
            }
        ],
        "categoryOrder": 12
    },
    {
        "categoryId": "s-456",
        "name": "撞球",
        "subCategories": [
            {
                "categoryId": "c-3037",
                "name": "WPBSA",
                "subCategories": [
                    {
                        "categoryId": "t-4633",
                        "name": "司諾克中國公開賽",
                        "categoryOrder": 0
                    }
                ],
                "categoryOrder": 0
            }
        ],
        "categoryOrder": 0
    },
    {
        "categoryId": "s-444",
        "name": "排球",
        "subCategories": [
            {
                "categoryId": "c-3877",
                "name": "國際賽",
                "subCategories": [
                    {
                        "categoryId": "t-12021",
                        "name": "女排國家聯賽",
                        "categoryOrder": 0
                    }
                ],
                "categoryOrder": 0
            }
        ],
        "categoryOrder": 0
    }
]